digraph "Human"
{
  edge [fontname="Helvetica",fontsize="10",labelfontname="Helvetica",labelfontsize="10"];
  node [fontname="Helvetica",fontsize="10",shape=record];
  Node1 [label="Human",height=0.2,width=0.4,color="black", fillcolor="grey75", style="filled", fontcolor="black"];
  Node2 -> Node1 [dir="back",color="midnightblue",fontsize="10",style="solid",fontname="Helvetica"];
  Node2 [label="Player",height=0.2,width=0.4,color="black", fillcolor="white", style="filled",URL="$classPlayer.html",tooltip="Base of Human and Computer player classes. "];
  Node3 -> Node2 [dir="back",color="midnightblue",fontsize="10",style="solid",fontname="Helvetica"];
  Node3 [label="TTTObject",height=0.2,width=0.4,color="black", fillcolor="white", style="filled",URL="$classTTTObject.html",tooltip="The TTTObject is implementation of ITTTObject. "];
  Node4 -> Node3 [dir="back",color="midnightblue",fontsize="10",style="solid",fontname="Helvetica"];
  Node4 [label="ITTTObject",height=0.2,width=0.4,color="black", fillcolor="white", style="filled",URL="$classITTTObject.html",tooltip="The ITTTObject abstract base class. "];
  Node5 -> Node2 [dir="back",color="midnightblue",fontsize="10",style="solid",fontname="Helvetica"];
  Node5 [label="MessageSender",height=0.2,width=0.4,color="black", fillcolor="white", style="filled",URL="$classMessageSender.html",tooltip="The MessageSender class. "];
  Node6 -> Node1 [dir="back",color="midnightblue",fontsize="10",style="solid",fontname="Helvetica"];
  Node6 [label="MessageReciever",height=0.2,width=0.4,color="black", fillcolor="white", style="filled",URL="$classMessageReciever.html",tooltip="The MessageReciever class. "];
  Node4 -> Node6 [dir="back",color="midnightblue",fontsize="10",style="solid",fontname="Helvetica"];
}
